93433
20990
86450
66923
86017
94496
24195
52241
70089
34582
53821
7937
69478
56414
47484
79484
71758
99562
79515
57704
42785
13124
4383
85944
19501
41458
94186
22347
80352
95012
52895
44500
75755
57885
35551
48645
67131
49226
22144
49819
54908
38959
5680
16887
58927
79098
43258
4677
68735
61186
50358
67133
29114
6516
12762
7222
9001
31735
38393
31696
34413
55449
65447
16959
66271
18240
28787
42609
68608
59231
20062
72830
59497
48154
53290
28172
92940
62308
81535
19711
63811
61188
95360
75946
38122
67104
92264
83386
37657
24309
27238
3766
21523
35265
34827
96733
16764
37702
95201
90923
39517
1655
51916
31791
58971
86398
23059
19340
8192
35834
40790
27844
15074
96035
4769
49476
87970
98702
69210
96011
11022
6852
14434
74675
28323
29626
44488
9592
62399
63395
16518
59912
58875
29339
61221
20197
77054
29531
69832
1384
79724
64870
27886
19810
33929
72104
81718
96667
24309
80428
53806
59700
25729
40177
20141
68135
50637
34961
51148
75576
30475
59237
10194
70166
66824
95123
12703
26400
33490
64621
25533
8962
54904
87515
78593
26230
58878
86235
30140
64229
52172
11671
68199
86118
16159
53099
73039
17796
43236
8788
40868
8827
40170
74216
7515
29296
75009
17112
71761
66083
26730
85612
80236
43340
10645
34312
69850
65573
38696
32106
9
1534
20271
72760
93875
70885
98561
25541
53977
6822
1038
78470
16760
93127
41439
44416
14057
96753
44403
42690
37335
61175
36295
50302
2505
13395
13408
93452
26260
33192
70616
53635
51700
550
94890
12080
2345
6209
51733
29998
25617
79654
22393
46756
69972
70028
17051
90230
74353
51379
65914
9287
58357
75677
10899
76460
74151
14642
8358
59532
41636
28290
37866
76728
91423
23401
59851
20494
58359
17487
65501
12401
66451
54093
6671
43875
27191
20535
27669
527
11860
52459
58901
50287
36887
69885
76376
64494
61025
4374
24984
4113
96894
89924
12940
31200
99524
48713
43674
59947
68026
4335
58885
25578
88329
13738
67571
84293
20428
10963
18808
81285
68876
75940
2936
99703
93125
57698
58477
64315
39361
59174
60522
33000
77444
86166
75406
96700
99932
32439
97657
40918
50221
62420
25429
10806
29786
59801
1980
35366
34547
10571
14944
3456
91124
21893
85161
87021
42669
61070
61596
69234
79315
95497
63854
32637
54739
29897
25556
46260
48066
98357
93614
40178
66968
50655
14615
17447
84183
59957
92907
21876
82805
86965
62648
46938
16331
33842
70788
57761
47882
5922
18741
35040
35070
30519
55330
67393
10430
72907
87325
31630
50646
76821
6129
30251
22324
55252
39762
65168
32236
49155
20498
45835
52961
20929
11125
42871
27960
66859
83128
87839
45501
2239
15678
34564
21637
74537
52445
26192
82227
34070
69740
80730
60608
90350
78611
13746
55807
54473
83879
26335
58291
86908
78656
95688
60684
60117
5571
67577
66830
83382
52632
20209
60246
48714
49530
97979
46744
87970
63490
10576
46727
43368
66671
78797
5652
66515
27142
2584
33913
39159
75967
55348
38547
19036
50229
26857
47180
26589
45379
42882
61044
18194
96617
90716
34469
49730
17882
46405
94419
2488
39341
64392
46108
16475
22918
80542
99608
63462
37012
75288
37624
37157
38016
89828
63799
96531
16999
93843
14309
48336
62456
88020
18645
43697
84809
40694
24271
1904
69691
8469
65166
72064
82118
45676
35208
96635
42173
48949
4267
85206
25036
43553
40283
99661
46848
54415
9536
82167
56715
79055
29361
59724
8625
7226
7221
29198
8098
57592
58719
85732
55126
35443
51089
32234
76374
29
62147
54334
29326
75545
84505
31021
39927
66367
59136
38064
18803
36802
8304
57093
83721
16177
62773
44659
83384
33117
82858
31126
19077
71789
91923
73929
4636
70852
6421
33585
16228
81625
98539
63521
76794
8536
83824
62995
8324
62733
63544
35772
39240
97213
65546
69281
34251
53370
43258
53287
54804
24347
9929
15693
16933
38088
43702
26133
53044
32179
75426
52197
3907
87880
26418
28331
11201
58262
8914
88013
14188
44205
9002
38522
93618
70740
71505
12857
46067
6797
66909
43160
93575
42756
39351
60149
73188
36921
27645
52044
73051
51444
73855
53173
45477
55674
54864
66265
79599
63733
6333
36313
78949
69564
66511
92060
44015
10243
53779
82127
49237
88994
40270
41922
81671
84980
39885
13340
67608
97855
38237
44108
49746
15884
7207
71326
49720
60235
28016
86833
41088
93756
65154
83415
98146
43625
27730
79226
80640
2025
74875
92512
23573
22755
88365
2264
93258
31873
43702
38655
97058
92292
94806
95924
47521
74303
33093
37274
97314
27053
94204
25383
94428
75722
91292
53107
83389
12363
48920
93420
53394
75430
95196
4430
31499
68922
1036
82756
23455
15425
78545
84339
17922
97258
17115
50748
19123
55319
31339
51216
37113
33697
67702
61674
36601
95489
3192
43084
75585
52955
35738
29610
75374
96851
53681
88460
24870
48154
41823
49280
98402
1897
79482
77039
69241
79273
87257
8555
80997
38445
31723
65790
9644
49105
12070
75361
49784
3782
4024
74655
60046
57199
65869
52507
45943
12890
4629
5790
83808
82951
34874
18929
65212
61863
24187
69662
25716
12554
88271
90901
8889
47152
35472
35956
35560
20574
40828
68111
65804
13607
35223
97881
15067
66018
98608
58506
53996
86800
58033
37691
12792
20578
43895
80065
57865
48874
91134
31181
745
87829
49349
63817
96799
86876
34171
69276
48584
79485
62038
71617
34062
41862
63926
87337
34319
72119
33078
82585
16875
94685
23919
69129
71751
96372
35307
82723
17903
41067
61851
59109
85130
31916
7818
26900
20550
94820
44619
25666
44553
58987
37109
64366
74547
65551
69278
95841
67785
41963
44439
51284
84724
34566
92296
15182
30811
17590
8797
28865
83720
61058
51306
15701
1057
5655
13854
99445
75263
1019
29377
98109
66995
92979
99067
6385
37788
19975
77527
76372
13285
45057
28383
91148
76945
48573
67027
5226
78328
28579
9042
40203
11411
42102
64973
9586
88014
16091
43613
22513
69789
46988
2375
85702
92814
80842
40995
24436
18118
61408
45791
16665
38837
76017
19335
83579
41529
24362
84106
2057
30647
56214
67420
47668
87663
48078
83188
73953
69134
77136
28300
32040
7664
2177
64844
75207
95865
21127
5353
58555
68005
15706
89189
14200
55447
70254
36149
80018
28573
568
67469
68273
90
81969
28795
76422
36508
16457
11057
86828
69936
92843
15301
83819